[gd_scene load_steps=4 format=2]

[ext_resource path="res://UIComponents/buttons/Button.tscn" type="PackedScene" id=1]
[ext_resource path="res://tabletop/shootout/planning/PlanningGui.gd" type="Script" id=2]
[ext_resource path="res://UIComponents/modals/modal.tscn" type="PackedScene" id=3]

[node name="PlanninGui" type="CanvasLayer"]
follow_viewport_enable = true
script = ExtResource( 2 )

[node name="ConfirmModal" parent="." instance=ExtResource( 3 )]
margin_top = -85.5
margin_bottom = 85.5

[node name="OkButton" parent="." instance=ExtResource( 1 )]
margin_left = -240.0
margin_top = -37.0
margin_right = 240.0
margin_bottom = 38.0
text = "Done!"
[connection signal="cancel" from="ConfirmModal" to="." method="_on_ConfirmModal_cancel"]
[connection signal="confirm" from="ConfirmModal" to="." method="_on_ConfirmModal_confirm"]
[connection signal="pressed" from="OkButton" to="." method="_on_OkButton_pressed"]
